{
  "BannerClose": {
    "message": "Close 🙉",
    "description": "Title of closing banner button"
  },
  "BannerMainMessage": {
    "message": "This site was marked as <b>$state$</b> by independent project",
    "description": "Main message of a banner.",
    "placeholders": {
      "state": {
        "content": "$1",
        "example": "nedůvěrohodný"
      }
    }
  },
  "FacebookMainMessage": {
    "message": "Site marked as <b>&nbsp;$state$&nbsp;</b> by",
    "description": "Main message of a facebook banner.",
    "placeholders": {
      "state": {
        "content": "$1",
        "example": "misleading"
      }
    }
  },
  "BannerMainMessageLink": {
    "message": "more about this project.",
    "description": "link from banner to mentioned project."
  },
  "misleading": {
    "message": "misleading",
    "description": "Translation of marked type of desinforamtion"
  },
  "fake": {
    "message": "fake",
    "description": "Translation of marked type of desinforamtion"
  },
  "satire": {
    "message": "satire",
    "description": "Translation of marked type of desinforamtion"
  },
  "bias": {
    "message": "bias",
    "description": "Translation of marked type of desinforamtion"
  },
  "conspiracy": {
    "message": "conspiracy",
    "description": "Translation of marked type of desinforamtion"
  },
  "rumor": {
    "message": "rumor",
    "description": "Translation of marked type of desinforamtion"
  },
  "state": {
    "message": "state",
    "description": "Translation of marked type of desinforamtion"
  },
  "junksci": {
    "message": "junksci",
    "description": "Translation of marked type of desinforamtion"
  },
  "hate": {
    "message": "hate",
    "description": "Translation of marked type of desinforamtion"
  },
  "clickbait": {
    "message": "clickbait",
    "description": "Translation of marked type of desinforamtion"
  },
  "unreliable": {
    "message": "unreliable",
    "description": "Translation of marked type of desinforamtion"
  },
  "political": {
    "message": "political",
    "description": "Translation of marked type of desinforamtion"
  }
}
